{
	"documents": [
		{
			"municipalityId": "2281",
			"createdBy": "User4",
			"registrationNumber": "2024-2281-991",
			"created": "2024-02-05T08:31:00+01:00",
			"confidentiality": {
				"legalCitation": "Law §7.2",
				"confidential": false
			},
			"description": "Generated Document 7",
			"archive": false,
			"id": "019d0963-b6c6-49fb-9f88-31ef5e525a1c",
			"documentData": [],
			"type": "HOLIDAY_EXCHANGE",
			"revision": 1,
			"metadataList": [
				{
					"value": "Company A",
					"key": "EMPLOYEE_UNIT"
				},
				{
					"value": "Consultant",
					"key": "EMPLOYEE_TYPE"
				}
			],
			"validFrom": "2024-02-05",
			"validTo": "2025-02-05",
			"responsibilities": [],
			"status": "ACTIVE"
		},
		{
			"municipalityId": "2281",
			"createdBy": "User3",
			"registrationNumber": "2024-2281-369",
			"created": "2023-12-07T08:33:07+01:00",
			"confidentiality": {
				"legalCitation": "Law §7.2",
				"confidential": false
			},
			"description": "Generated Document 17",
			"archive": false,
			"id": "1a3e2060-c190-4c91-b221-b380493e5f4b",
			"documentData": [],
			"type": "MISSPELLED",
			"revision": 1,
			"metadataList": [
				{
					"value": "Company B",
					"key": "EMPLOYEE_UNIT"
				},
				{
					"value": "Developer",
					"key": "EMPLOYEE_TYPE"
				}
			],
			"validFrom": "2023-12-07",
			"validTo": "2026-12-07",
			"responsibilities": [],
			"status": "ACTIVE"
		},
		{
			"municipalityId": "2281",
			"createdBy": "User2",
			"registrationNumber": "2024-2281-283",
			"created": "2024-01-23T08:31:00+01:00",
			"confidentiality": {
				"legalCitation": "Law §7.2",
				"confidential": false
			},
			"description": "Generated Document 4",
			"archive": false,
			"id": "1cc8599b-8726-4cf7-869d-36737044400c",
			"documentData": [],
			"type": "EMPLOYEE_CERTIFICATE",
			"revision": 1,
			"metadataList": [
				{
					"value": "Organization X",
					"key": "EMPLOYEE_UNIT"
				},
				{
					"value": "Manager",
					"key": "EMPLOYEE_TYPE"
				}
			],
			"validFrom": "2024-01-23",
			"responsibilities": [],
			"status": "ACTIVE"
		}
	],
	"_meta": {
		"totalRecords": 17,
		"limit": 3,
		"count": 3,
		"totalPages": 6,
		"page": 0
	}
}
